<?xml version="1.0" ?>
<robot name="shadowhand_motor">

 <link name="world" />

 <joint name="world_joint" type="fixed">
    <parent link="world" />
    <child link = "shadowhand_motor__world" />
    <origin xyz="0.0 0.0 0.1" rpy="0.0 0.0 0.0" />
 </joint>


 
  <joint name="shadowhand_motor__rh_world_joint" type="fixed">
    <parent link="shadowhand_motor__world"/>
    <child link="shadowhand_motor__rh_forearm"/>
    <origin rpy="0  0  0" xyz="0  0  0"/>
    <axis xyz="1  0  0"/>
    <limit effort="0.0" lower="0.0" upper="0.0" velocity="0.0"/>
  </joint>


  <gazebo reference="shadowhand_motor__rh_world_joint">
  <dynamics>
    <damping>0</damping>
    <friction>0</friction>
    <spring_reference>0</spring_reference>
    <spring_stiffness>0</spring_stiffness>
  </dynamics>
</gazebo>

  <joint name="rh_WRJ1" type="revolute">
    <parent link="shadowhand_motor__rh_forearm"/>
    <child link="shadowhand_motor__rh_wrist"/>
    <origin rpy="0  0  0" xyz="0    -0.01   0.213"/>
    <axis xyz="0  1  0"/>
    <limit effort="10.0" lower="-0.523599" upper="0.174533" velocity="2.0"/>
  </joint>

  <gazebo reference="rh_WRJ1">

<axis>
        <xyz>0 1 0</xyz>
        <limit>
          <lower>-0.523599</lower>
          <upper>0.174533</upper>
          <effort>10</effort>
          <velocity>2</velocity>
        </limit>
        <dynamics>
          <damping>0.1</damping>
          <friction>0</friction>
          <spring_reference>0</spring_reference>
          <spring_stiffness>0</spring_stiffness>
        </dynamics>
        <use_parent_model_frame>1</use_parent_model_frame>
      </axis>
      <physics>
        <provide_feedback>1</provide_feedback>
        <ode>
          <provide_feedback>1</provide_feedback>
          <implicit_spring_damper>1</implicit_spring_damper>
          <cfm_damping>1</cfm_damping>
          <limit>
            <cfm>0</cfm>
            <erp>0.2</erp>
          </limit>
        </ode>
      </physics>

</gazebo>




   <transmission name="tran1">
        <type>transmission_interface/SimpleTransmission</type>
        <joint name="rh_WRJ1">
            <hardwareInterface>hardware_interface/PositionJointInterface</hardwareInterface>
        </joint>
        <actuator name="motor1">
            <hardwareInterface>hardware_interface/PositionJointInterface</hardwareInterface>
            <mechanicalReduction>1</mechanicalReduction>
        </actuator>
    </transmission>



  <joint name="rh_WRJ0" type="revolute">
    <parent link="shadowhand_motor__rh_wrist"/>
    <child link="shadowhand_motor__rh_palm"/>
    <origin rpy="0  0  0" xyz="0     0     0.034"/>
    <axis xyz="1  0  0"/>
    <limit effort="30.0" lower="-0.698132" upper="0.488692" velocity="2.0"/>
  </joint>



  <transmission name="tran2">
        <type>transmission_interface/SimpleTransmission</type>
        <joint name="rh_WRJ0">
            <hardwareInterface>hardware_interface/PositionJointInterface</hardwareInterface>
        </joint>
        <actuator name="motor1">
            <hardwareInterface>hardware_interface/PositionJointInterface</hardwareInterface>
            <mechanicalReduction>1</mechanicalReduction>
        </actuator>
    </transmission>


  <joint name="rh_FFJ3" type="revolute">
    <parent link="shadowhand_motor__rh_palm"/>
    <child link="shadowhand_motor__rh_ffknuckle"/>
    <origin rpy="0  0  0" xyz="0.033  0     0.095"/>
    <axis xyz="0 1  0"/>
    <limit effort="2.0" lower="-0.349066" upper="0.349066" velocity="2.0"/>
  </joint>



<transmission name="tran3">
        <type>transmission_interface/SimpleTransmission</type>
        <joint name="rh_FFJ3">
            <hardwareInterface>hardware_interface/PositionJointInterface</hardwareInterface>
        </joint>
        <actuator name="motor1">
            <hardwareInterface>hardware_interface/PositionJointInterface</hardwareInterface>
            <mechanicalReduction>1</mechanicalReduction>
        </actuator>
    </transmission>

  <joint name="rh_FFJ2" type="revolute">
    <parent link="shadowhand_motor__rh_ffknuckle"/>
    <child link="shadowhand_motor__rh_ffproximal"/>
    <origin rpy="0  0  0" xyz="0  0  0"/>
    <axis xyz="1  0  0"/>
    <limit effort="2.0" lower="0.0" upper="1.5708" velocity="2.0"/>
  </joint>





<transmission name="tran4">
        <type>transmission_interface/SimpleTransmission</type>
        <joint name="rh_FFJ2">
            <hardwareInterface>hardware_interface/PositionJointInterface</hardwareInterface>
        </joint>
        <actuator name="motor1">
            <hardwareInterface>hardware_interface/PositionJointInterface</hardwareInterface>
            <mechanicalReduction>1</mechanicalReduction>
        </actuator>
    </transmission>


  <joint name="rh_FFJ1" type="revolute">
    <parent link="shadowhand_motor__rh_ffproximal"/>
    <child link="shadowhand_motor__rh_ffmiddle"/>
    <origin rpy="0  0  0" xyz="0     0     0.045"/>
    <axis xyz="1  0  0"/>
    <limit effort="2.0" lower="0.0" upper="1.5708" velocity="2.0"/>
  </joint>





<transmission name="tran5">
        <type>transmission_interface/SimpleTransmission</type>
        <joint name="rh_FFJ1">
            <hardwareInterface>hardware_interface/PositionJointInterface</hardwareInterface>
        </joint>
        <actuator name="motor1">
            <hardwareInterface>hardware_interface/PositionJointInterface</hardwareInterface>
            <mechanicalReduction>1</mechanicalReduction>
        </actuator>
    </transmission>


  <joint name="rh_FFJ0" type="revolute">
    <parent link="shadowhand_motor__rh_ffmiddle"/>
    <child link="shadowhand_motor__rh_ffdistal"/>
    <origin rpy="0  0  0" xyz="0     0     0.025"/>
    <axis xyz="1  0  0"/>
    <limit effort="2.0" lower="0.0" upper="1.5708" velocity="2.0"/>
  </joint>




  <transmission name="tran6">
        <type>transmission_interface/SimpleTransmission</type>
        <joint name="rh_FFJ0">
            <hardwareInterface>hardware_interface/PositionJointInterface</hardwareInterface>
        </joint>
        <actuator name="motor1">
            <hardwareInterface>hardware_interface/PositionJointInterface</hardwareInterface>
            <mechanicalReduction>1</mechanicalReduction>
        </actuator>
    </transmission>


  <joint name="rh_LFJ4" type="revolute">
    <parent link="shadowhand_motor__rh_palm"/>
    <child link="shadowhand_motor__rh_lfmetacarpal"/>
    <origin rpy="0  0  0" xyz="-0.033    0       0.02071"/>
    <axis xyz="0.57357  0       0.81915"/>
    <limit effort="2.0" lower="0.0" upper="0.785398" velocity="2.0"/>
  </joint>



<transmission name="tran7">
        <type>transmission_interface/SimpleTransmission</type>
        <joint name="rh_LFJ4">
            <hardwareInterface>hardware_interface/PositionJointInterface</hardwareInterface>
        </joint>
        <actuator name="motor1">
            <hardwareInterface>hardware_interface/PositionJointInterface</hardwareInterface>
            <mechanicalReduction>1</mechanicalReduction>
        </actuator>
    </transmission>

  <joint name="rh_LFJ3" type="revolute">
    <parent link="shadowhand_motor__rh_lfmetacarpal"/>
    <child link="shadowhand_motor__rh_lfknuckle"/>
    <origin rpy="0  0  0" xyz="0       0       0.06579"/>
    <axis xyz="0  1  0"/>
    <limit effort="2.0" lower="-0.349066" upper="0.349066" velocity="2.0"/>
  </joint>




  <transmission name="tran8">
        <type>transmission_interface/SimpleTransmission</type>
        <joint name="rh_LFJ3">
            <hardwareInterface>hardware_interface/PositionJointInterface</hardwareInterface>
        </joint>
        <actuator name="motor1">
            <hardwareInterface>hardware_interface/PositionJointInterface</hardwareInterface>
            <mechanicalReduction>1</mechanicalReduction>
        </actuator>
    </transmission>


  <joint name="rh_LFJ2" type="revolute">
    <parent link="shadowhand_motor__rh_lfknuckle"/>
    <child link="shadowhand_motor__rh_lfproximal"/>
    <origin rpy="0  0  0" xyz="0  0  0"/>
    <axis xyz="1  0  0"/>
    <limit effort="2.0" lower="0.0" upper="1.5708" velocity="2.0"/>
  </joint>





  <transmission name="tran9">
        <type>transmission_interface/SimpleTransmission</type>
        <joint name="rh_LFJ2">
            <hardwareInterface>hardware_interface/PositionJointInterface</hardwareInterface>
        </joint>
        <actuator name="motor1">
            <hardwareInterface>hardware_interface/PositionJointInterface</hardwareInterface>
            <mechanicalReduction>1</mechanicalReduction>
        </actuator>
    </transmission>


  <joint name="rh_LFJ1" type="revolute">
    <parent link="shadowhand_motor__rh_lfproximal"/>
    <child link="shadowhand_motor__rh_lfmiddle"/>
    <origin rpy="0  0  0" xyz="0     0     0.045"/>
    <axis xyz="1  0  0"/>
    <limit effort="2.0" lower="0.0" upper="1.5708" velocity="2.0"/>
  </joint>


  <transmission name="tran10">
        <type>transmission_interface/SimpleTransmission</type>
        <joint name="rh_LFJ1">
            <hardwareInterface>hardware_interface/PositionJointInterface</hardwareInterface>
        </joint>
        <actuator name="motor1">
            <hardwareInterface>hardware_interface/PositionJointInterface</hardwareInterface>
            <mechanicalReduction>1</mechanicalReduction>
        </actuator>
    </transmission>


  <joint name="rh_LFJ0" type="revolute">
    <parent link="shadowhand_motor__rh_lfmiddle"/>
    <child link="shadowhand_motor__rh_lfdistal"/>
    <origin rpy="0  0  0" xyz="0     0     0.025"/>
    <axis xyz="1  0  0"/>
    <limit effort="2.0" lower="0.0" upper="1.5708" velocity="2.0"/>
  </joint>




  <transmission name="tran11">
        <type>transmission_interface/SimpleTransmission</type>
        <joint name="rh_LFJ0">
            <hardwareInterface>hardware_interface/PositionJointInterface</hardwareInterface>
        </joint>
        <actuator name="motor1">
            <hardwareInterface>hardware_interface/PositionJointInterface</hardwareInterface>
            <mechanicalReduction>1</mechanicalReduction>
        </actuator>
    </transmission>


  <joint name="rh_MFJ3" type="revolute">
    <parent link="shadowhand_motor__rh_palm"/>
    <child link="shadowhand_motor__rh_mfknuckle"/>
    <origin rpy="0  0  0" xyz="0.011  0     0.099"/>
    <axis xyz="0 1  0"/>
    <limit effort="2.0" lower="-0.349066" upper="0.349066" velocity="2.0"/>
  </joint>




  <transmission name="tran12">
        <type>transmission_interface/SimpleTransmission</type>
        <joint name="rh_MFJ3">
            <hardwareInterface>hardware_interface/PositionJointInterface</hardwareInterface>
        </joint>
        <actuator name="motor1">
            <hardwareInterface>hardware_interface/PositionJointInterface</hardwareInterface>
            <mechanicalReduction>1</mechanicalReduction>
        </actuator>
    </transmission>


  <joint name="rh_MFJ2" type="revolute">
    <parent link="shadowhand_motor__rh_mfknuckle"/>
    <child link="shadowhand_motor__rh_mfproximal"/>
    <origin rpy="0  0  0" xyz="0  0  0"/>
    <axis xyz="1  0  0"/>
    <limit effort="2.0" lower="0.0" upper="1.5708" velocity="2.0"/>
  </joint>




   <transmission name="tran13">
        <type>transmission_interface/SimpleTransmission</type>
        <joint name="rh_MFJ2">
            <hardwareInterface>hardware_interface/PositionJointInterface</hardwareInterface>
        </joint>
        <actuator name="motor1">
            <hardwareInterface>hardware_interface/PositionJointInterface</hardwareInterface>
            <mechanicalReduction>1</mechanicalReduction>
        </actuator>
    </transmission>


  <joint name="rh_MFJ1" type="revolute">
    <parent link="shadowhand_motor__rh_mfproximal"/>
    <child link="shadowhand_motor__rh_mfmiddle"/>
    <origin rpy="0  0  0" xyz="0     0     0.045"/>
    <axis xyz="1  0  0"/>
    <limit effort="2.0" lower="0.0" upper="1.5708" velocity="2.0"/>
  </joint>




  <transmission name="tran14">
        <type>transmission_interface/SimpleTransmission</type>
        <joint name="rh_MFJ1">
            <hardwareInterface>hardware_interface/PositionJointInterface</hardwareInterface>
        </joint>
        <actuator name="motor1">
            <hardwareInterface>hardware_interface/PositionJointInterface</hardwareInterface>
            <mechanicalReduction>1</mechanicalReduction>
        </actuator>
    </transmission>


  <joint name="rh_MFJ0" type="revolute">
    <parent link="shadowhand_motor__rh_mfmiddle"/>
    <child link="shadowhand_motor__rh_mfdistal"/>
    <origin rpy="0  0  0" xyz="0     0     0.025"/>
    <axis xyz="1  0  0"/>
    <limit effort="2.0" lower="0.0" upper="1.5708" velocity="2.0"/>
  </joint>




  <transmission name="tran15">
        <type>transmission_interface/SimpleTransmission</type>
        <joint name="rh_MFJ0">
            <hardwareInterface>hardware_interface/PositionJointInterface</hardwareInterface>
        </joint>
        <actuator name="motor1">
            <hardwareInterface>hardware_interface/PositionJointInterface</hardwareInterface>
            <mechanicalReduction>1</mechanicalReduction>
        </actuator>
    </transmission>


  <joint name="rh_RFJ3" type="revolute">
    <parent link="shadowhand_motor__rh_palm"/>
    <child link="shadowhand_motor__rh_rfknuckle"/>
    <origin rpy="0  0  0" xyz="-0.011  0     0.095"/>
    <axis xyz="0  1  0"/>
    <limit effort="2.0" lower="-0.349066" upper="0.349066" velocity="2.0"/>
  </joint>





 <transmission name="tran16">
        <type>transmission_interface/SimpleTransmission</type>
        <joint name="rh_RFJ3">
            <hardwareInterface>hardware_interface/PositionJointInterface</hardwareInterface>
        </joint>
        <actuator name="motor1">
            <hardwareInterface>hardware_interface/PositionJointInterface</hardwareInterface>
            <mechanicalReduction>1</mechanicalReduction>
        </actuator>
    </transmission>

  <joint name="rh_RFJ2" type="revolute">
    <parent link="shadowhand_motor__rh_rfknuckle"/>
    <child link="shadowhand_motor__rh_rfproximal"/>
    <origin rpy="0  0  0" xyz="0  0  0"/>
    <axis xyz="1  0  0"/>
    <limit effort="2.0" lower="0.0" upper="1.5708" velocity="2.0"/>
  </joint>





   <transmission name="tran17">
        <type>transmission_interface/SimpleTransmission</type>
        <joint name="rh_RFJ2">
            <hardwareInterface>hardware_interface/PositionJointInterface</hardwareInterface>
        </joint>
        <actuator name="motor1">
            <hardwareInterface>hardware_interface/PositionJointInterface</hardwareInterface>
            <mechanicalReduction>1</mechanicalReduction>
        </actuator>
    </transmission>


  <joint name="rh_RFJ1" type="revolute">
    <parent link="shadowhand_motor__rh_rfproximal"/>
    <child link="shadowhand_motor__rh_rfmiddle"/>
    <origin rpy="0  0  0" xyz="0     0     0.045"/>
    <axis xyz="1  0  0"/>
    <limit effort="2.0" lower="0.0" upper="1.5708" velocity="2.0"/>
  </joint>




  <transmission name="tran18">
        <type>transmission_interface/SimpleTransmission</type>
        <joint name="rh_RFJ1">
            <hardwareInterface>hardware_interface/PositionJointInterface</hardwareInterface>
        </joint>
        <actuator name="motor1">
            <hardwareInterface>hardware_interface/PositionJointInterface</hardwareInterface>
            <mechanicalReduction>1</mechanicalReduction>
        </actuator>
    </transmission>


  <joint name="rh_RFJ0" type="revolute">
    <parent link="shadowhand_motor__rh_rfmiddle"/>
    <child link="shadowhand_motor__rh_rfdistal"/>
    <origin rpy="0  0  0" xyz="0     0     0.025"/>
    <axis xyz="1  0  0"/>
    <limit effort="2.0" lower="0.0" upper="1.5708" velocity="2.0"/>
  </joint>






   <transmission name="tran19">
        <type>transmission_interface/SimpleTransmission</type>
        <joint name="rh_RFJ0">
            <hardwareInterface>hardware_interface/PositionJointInterface</hardwareInterface>
        </joint>
        <actuator name="motor1">
            <hardwareInterface>hardware_interface/PositionJointInterface</hardwareInterface>
            <mechanicalReduction>1</mechanicalReduction>
        </actuator>
    </transmission>


  <joint name="rh_THJ4" type="revolute">
    <parent link="shadowhand_motor__rh_palm"/>
    <child link="shadowhand_motor__rh_thbase"/>
    <origin rpy="0       0.78539  0" xyz="0.034  -0.0085  0.029"/>
    <axis xyz="0  0 -1"/>
    <limit effort="5.0" lower="-1.0472" upper="1.0472" velocity="4.0"/>
  </joint>

  <transmission name="tran20">
        <type>transmission_interface/SimpleTransmission</type>
        <joint name="rh_THJ4">
            <hardwareInterface>hardware_interface/PositionJointInterface</hardwareInterface>
        </joint>
        <actuator name="motor1">
            <hardwareInterface>hardware_interface/PositionJointInterface</hardwareInterface>
            <mechanicalReduction>1</mechanicalReduction>
        </actuator>
    </transmission>


  <joint name="rh_THJ3" type="revolute">
    <parent link="shadowhand_motor__rh_thbase"/>
    <child link="shadowhand_motor__rh_thproximal"/>
    <origin rpy="0  0  0" xyz="0  0  0"/>
    <axis xyz="1  0  0"/>
    <limit effort="3.0" lower="0.0" upper="1.22173" velocity="4.0"/>
  </joint>

  <transmission name="tran21">
        <type>transmission_interface/SimpleTransmission</type>
        <joint name="rh_THJ3">
            <hardwareInterface>hardware_interface/PositionJointInterface</hardwareInterface>
        </joint>
        <actuator name="motor1">
            <hardwareInterface>hardware_interface/PositionJointInterface</hardwareInterface>
            <mechanicalReduction>1</mechanicalReduction>
        </actuator>
    </transmission>


  <joint name="rh_THJ2" type="revolute">
    <parent link="shadowhand_motor__rh_thproximal"/>
    <child link="shadowhand_motor__rh_thhub"/>
    <origin rpy="0  0  0" xyz="0     0     0.038"/>
    <axis xyz="1  0  0"/>
    <limit effort="2.0" lower="-0.20944" upper="0.20944" velocity="4.0"/>
  </joint>

   <transmission name="tran22">
        <type>transmission_interface/SimpleTransmission</type>
        <joint name="rh_THJ2">
            <hardwareInterface>hardware_interface/PositionJointInterface</hardwareInterface>
        </joint>
        <actuator name="motor1">
            <hardwareInterface>hardware_interface/PositionJointInterface</hardwareInterface>
            <mechanicalReduction>1</mechanicalReduction>
        </actuator>
    </transmission>


  <joint name="rh_THJ1" type="revolute">
    <parent link="shadowhand_motor__rh_thhub"/>
    <child link="shadowhand_motor__rh_thmiddle"/>
    <origin rpy="0  0  0" xyz="0  0  0"/>
    <axis xyz="0 1  0"/>
    <limit effort="2.0" lower="-0.524" upper="0.524" velocity="2.0"/>
  </joint>

  <transmission name="tran23">
        <type>transmission_interface/SimpleTransmission</type>
        <joint name="rh_THJ1">
            <hardwareInterface>hardware_interface/PositionJointInterface</hardwareInterface>
        </joint>
        <actuator name="motor1">
            <hardwareInterface>hardware_interface/PositionJointInterface</hardwareInterface>
            <mechanicalReduction>1</mechanicalReduction>
        </actuator>
    </transmission>


  <joint name="rh_THJ0" type="revolute">
    <parent link="shadowhand_motor__rh_thmiddle"/>
    <child link="shadowhand_motor__rh_thdistal"/>
    <origin rpy="0       0      -1.57079" xyz="0     0     0.032"/>
    <axis xyz="0 1  0"/>
    <limit effort="1.0" lower="-1.5708" upper="0" velocity="4.0"/>
  </joint>

 <transmission name="tran24">
        <type>transmission_interface/SimpleTransmission</type>
        <joint name="rh_THJ0">
            <hardwareInterface>hardware_interface/PositionJointInterface</hardwareInterface>
        </joint>
        <actuator name="motor1">
            <hardwareInterface>hardware_interface/PositionJointInterface</hardwareInterface>
            <mechanicalReduction>1</mechanicalReduction>
        </actuator>
    </transmission>
 


  <gazebo>
        <plugin name="gazebo_ros_control" filename="libgazebo_ros_control.so">
            <robotNamespace>/shadow_hand_test</robotNamespace>
            <robotSimType>gazebo_ros_control/DefaultRobotHWSim</robotSimType>
        </plugin>
    </gazebo>













  <link name="shadowhand_motor__rh_forearm">
    <inertial>
      <mass value="3"/>
      <origin rpy="0  0  0" xyz="0    0    0.09"/>
      <inertia ixx="0.0138" ixy="0" ixz="0" iyy="0.0138" iyz="0" izz="0.00744"/>
    </inertial>
    <collision name="shadowhand_motor__rh_forearm_collision">
      <origin rpy="0  0  0" xyz="0     0     0.092"/>
      <geometry>
        <cylinder length="0.184" radius="0.07"/>
      </geometry>
    </collision>
    <collision name="shadowhand_motor__rh_forearm_collision_1">
      <origin rpy="0    0.78  0" xyz="0    -0.01   0.181"/>
      <geometry>
        <box size="0.07 0.07 0.07"/>
      </geometry>
    </collision>
    <visual name="shadowhand_motor__rh_forearm_visual">
      <origin rpy="0  0  0" xyz="0  0  0"/>
      <geometry>
        <mesh filename="package://shadow_hand_test/urdf/sr_hand/meshes/forearm_2.dae" scale="0.001 0.001 0.001"/>
      </geometry>
    </visual>
  </link>
  <link name="shadowhand_motor__world">
    <inertial>
      <mass value="0"/>
      <origin rpy="0  0  0" xyz="0  0  0"/>
      <inertia ixx="0" ixy="0" ixz="0" iyy="0" iyz="0" izz="0"/>
    </inertial>
  </link>
  <link name="shadowhand_motor__rh_wrist">
    <inertial>
      <mass value="0.1"/>
      <origin rpy="0  0  0" xyz="0     0     0.029"/>
      <inertia ixx="3.5e-05" ixy="0" ixz="0" iyy="6.4e-05" iyz="0" izz="4.38e-05"/>
    </inertial>
    <collision name="shadowhand_motor__rh_wrist_collision">
      <origin rpy="-1.57079  1.57079  3.14159" xyz="0  0  0"/>
      <geometry>
        <cylinder length="0.03" radius="0.0135"/>
      </geometry>
    </collision>
    <collision name="shadowhand_motor__rh_wrist_collision_1">
      <origin rpy="3.14159  1.57079  3.14159" xyz="-0.026  0     0.034"/>
      <geometry>
        <cylinder length="0.01" radius="0.011"/>
      </geometry>
    </collision>
    <collision name="shadowhand_motor__rh_wrist_collision_2">
      <origin rpy="3.14159  1.57079  3.14159" xyz="0.031  0     0.034"/>
      <geometry>
        <cylinder length="0.01" radius="0.011"/>
      </geometry>
    </collision>
    <collision name="shadowhand_motor__rh_wrist_collision_3">
      <origin rpy="0      0.7854  0" xyz="-0.021  0     0.011"/>
      <geometry>
        <box size="0.027 0.018 0.01"/>
      </geometry>
    </collision>
    <collision name="shadowhand_motor__rh_wrist_collision_4">
      <origin rpy="0     -0.7854  0" xyz="0.026  0     0.01"/>
      <geometry>
        <box size="0.027 0.018 0.01"/>
      </geometry>
    </collision>
    <visual name="shadowhand_motor__rh_wrist_visual">
      <origin rpy="0  0  0" xyz="0  0  0"/>
      <geometry>
        <mesh filename="package://shadow_hand_test/urdf/sr_hand/meshes/wrist_2.dae" scale="0.001 0.001 0.001"/>
      </geometry>
    </visual>
  </link>
  <link name="shadowhand_motor__rh_palm">
    <inertial>
      <mass value="0.3"/>
      <origin rpy="0  0  0" xyz="0     0     0.035"/>
      <inertia ixx="0.0003581" ixy="0" ixz="0" iyy="0.0005287" iyz="0" izz="0.000191"/>
    </inertial>
    <collision name="shadowhand_motor__rh_palm_collision">
      <origin rpy="0  0  0" xyz="0.011   0.0085  0.038"/>
      <geometry>
        <box size="0.062 0.007 0.098"/>
      </geometry>
    </collision>
    <collision name="shadowhand_motor__rh_palm_collision_1">
      <origin rpy="0  0  0" xyz="-0.002  -0.0035  0.038"/>
      <geometry>
        <box size="0.036 0.017 0.098"/>
      </geometry>
    </collision>
    <collision name="shadowhand_motor__rh_palm_collision_2">
      <origin rpy="0  0  0" xyz="0.029  -0.0035  0.082"/>
      <geometry>
        <box size="0.026 0.017 0.01"/>
      </geometry>
    </collision>
    <collision name="shadowhand_motor__rh_palm_collision_3">
      <origin rpy="0.2   0    0.25" xyz="0.0265 -0.001   0.07"/>
      <geometry>
        <box size="0.026 0.014 0.018"/>
      </geometry>
    </collision>
    <collision name="shadowhand_motor__rh_palm_collision_4">
      <origin rpy="0  0  0" xyz="0.0315 -0.0085  0.001"/>
      <geometry>
        <box size="0.021 0.027 0.024"/>
      </geometry>
    </collision>
    <collision name="shadowhand_motor__rh_palm_collision_5">
      <origin rpy="0    0   -0.48" xyz="0.0125  -0.015    0.00899"/>
      <geometry>
        <box size="0.022 0.005 0.04"/>
      </geometry>
    </collision>
    <collision name="shadowhand_motor__rh_palm_collision_6">
      <origin rpy="0  0  0" xyz="0.011  0     0.089"/>
      <geometry>
        <box size="0.018 0.024 0.004"/>
      </geometry>
    </collision>
    <collision name="shadowhand_motor__rh_palm_collision_7">
      <origin rpy="0  0  0" xyz="-0.03     0       0.00899"/>
      <geometry>
        <box size="0.02 0.024 0.04"/>
      </geometry>
    </collision>
    <visual name="shadowhand_motor__rh_palm_visual">
      <origin rpy="0  0  0" xyz="0  0  0"/>
      <geometry>
        <mesh filename="package://shadow_hand_test/urdf/sr_hand/meshes/palm_2.dae" scale="0.001 0.001 0.001"/>
      </geometry>
    </visual>
  </link>
  <link name="shadowhand_motor__rh_ffknuckle">
    <inertial>
      <mass value="0.008"/>
      <origin rpy="0  0  0" xyz="0  0  0"/>
      <inertia ixx="2.6e-07" ixy="0" ixz="0" iyy="2.6e-07" iyz="0" izz="3.2e-07"/>
    </inertial>
    <collision name="shadowhand_motor__rh_ffknuckle_collision">
      <origin rpy="3.14159  1.57079  3.14159" xyz="0  0  0"/>
      <geometry>
        <cylinder length="0.014" radius="0.007"/>
      </geometry>
    </collision>
    <visual name="shadowhand_motor__rh_ffknuckle_visual">
      <origin rpy="0  0  0" xyz="0      0      0.0005"/>
      <geometry>
        <mesh filename="package://shadow_hand_test/urdf/sr_hand/meshes/knuckle_2.dae" scale="0.001 0.001 0.001"/>
      </geometry>
    </visual>
  </link>
  <link name="shadowhand_motor__rh_ffproximal">
    <inertial>
      <mass value="0.03"/>
      <origin rpy="0  0  0" xyz="0      0      0.0225"/>
      <inertia ixx="9.8e-06" ixy="0" ixz="0" iyy="1e-05" iyz="0" izz="1.8e-06"/>
    </inertial>
    <collision name="shadowhand_motor__rh_ffproximal_collision">
      <origin rpy="0  0  0" xyz="0     0     0.025"/>
      <geometry>
        <cylinder length="0.04" radius="0.007"/>
      </geometry>
    </collision>
    <visual name="shadowhand_motor__rh_ffproximal_visual">
      <origin rpy="0  0  0" xyz="0  0  0"/>
      <geometry>
        <mesh filename="package://shadow_hand_test/urdf/sr_hand/meshes/F3_2.dae" scale="0.001 0.001 0.001"/>
      </geometry>
    </visual>
  </link>
  <link name="shadowhand_motor__rh_ffmiddle">
    <inertial>
      <mass value="0.017"/>
      <origin rpy="0  0  0" xyz="0      0      0.0125"/>
      <inertia ixx="2.6e-06" ixy="0" ixz="0" iyy="2.7e-06" iyz="0" izz="8.7e-07"/>
    </inertial>
    <collision name="shadowhand_motor__rh_ffmiddle_collision">
      <origin rpy="0  0  0" xyz="0      0      0.0125"/>
      <geometry>
        <cylinder length="0.025" radius="0.007"/>
      </geometry>
    </collision>
    <collision name="shadowhand_motor__rh_ffmiddle_collision_1">
      <origin rpy="0  0  0" xyz="0  0  0"/>
      <geometry>
        <sphere radius="0.007"/>
      </geometry>
    </collision>
    <collision name="shadowhand_motor__rh_ffmiddle_collision_2">
      <origin rpy="0  0  0" xyz="0     0     0.025"/>
      <geometry>
        <sphere radius="0.007"/>
      </geometry>
    </collision>
    <visual name="shadowhand_motor__rh_ffmiddle_visual">
      <origin rpy="0  0  0" xyz="0  0  0"/>
      <geometry>
        <mesh filename="package://shadow_hand_test/urdf/sr_hand/meshes/F2_2.dae" scale="0.001 0.001 0.001"/>
      </geometry>
    </visual>
  </link>
  <link name="shadowhand_motor__rh_ffdistal">
    <inertial>
      <mass value="0.013"/>
      <origin rpy="0  0  0" xyz="0       0       0.01307"/>
      <inertia ixx="1.12092e-06" ixy="0" ixz="0" iyy="1.28092e-06" iyz="0" izz="5.3e-07"/>
    </inertial>
    <collision name="shadowhand_motor__rh_ffdistal_collision">
      <origin rpy="0  0  0" xyz="0  0  0"/>
      <geometry>
        <mesh filename="package://shadow_hand_test/urdf/sr_hand/meshes/F1_2.dae" scale="0.001 0.001 0.001"/>
      </geometry>
    </collision>
    <visual name="shadowhand_motor__rh_ffdistal_visual">
      <origin rpy="0  0  0" xyz="0  0  0"/>
      <geometry>
        <mesh filename="package://shadow_hand_test/urdf/sr_hand/meshes/F1_2.dae" scale="0.001 0.001 0.001"/>
      </geometry>
    </visual>
  </link>
  <link name="shadowhand_motor__rh_lfmetacarpal">
    <inertial>
      <mass value="0.03"/>
      <origin rpy="0  0  0" xyz="0    0    0.04"/>
      <inertia ixx="1.45e-05" ixy="0" ixz="0" iyy="1.638e-05" iyz="0" izz="4.272e-06"/>
    </inertial>
    <collision name="shadowhand_motor__rh_lfmetacarpal_collision">
      <origin rpy="0  0  0" xyz="0     0     0.038"/>
      <geometry>
        <box size="0.018 0.024 0.04"/>
      </geometry>
    </collision>
    <visual name="shadowhand_motor__rh_lfmetacarpal_visual">
      <origin rpy="0  0  0" xyz="0  0  0"/>
      <geometry>
        <mesh filename="package://shadow_hand_test/urdf/sr_hand/meshes/lfmetacarpal_2.dae" scale="0.001 0.001 0.001"/>
      </geometry>
    </visual>
  </link>
  <link name="shadowhand_motor__rh_lfknuckle">
    <inertial>
      <mass value="0.008"/>
      <origin rpy="0  0  0" xyz="0  0  0"/>
      <inertia ixx="2.6e-07" ixy="0" ixz="0" iyy="2.6e-07" iyz="0" izz="3.2e-07"/>
    </inertial>
    <collision name="shadowhand_motor__rh_lfknuckle_collision">
      <origin rpy="3.14159  1.57079  3.14159" xyz="0  0  0"/>
      <geometry>
        <cylinder length="0.014" radius="0.007"/>
      </geometry>
    </collision>
    <visual name="shadowhand_motor__rh_lfknuckle_visual">
      <origin rpy="0  0  0" xyz="0      0      0.0005"/>
      <geometry>
        <mesh filename="package://shadow_hand_test/urdf/sr_hand/meshes/knuckle_2.dae" scale="0.001 0.001 0.001"/>
      </geometry>
    </visual>
  </link>
  <link name="shadowhand_motor__rh_lfproximal">
    <inertial>
      <mass value="0.03"/>
      <origin rpy="0  0  0" xyz="0      0      0.0225"/>
      <inertia ixx="9.8e-06" ixy="0" ixz="0" iyy="1e-05" iyz="0" izz="1.8e-06"/>
    </inertial>
    <collision name="shadowhand_motor__rh_lfproximal_collision">
      <origin rpy="0  0  0" xyz="0     0     0.025"/>
      <geometry>
        <cylinder length="0.04" radius="0.007"/>
      </geometry>
    </collision>
    <visual name="shadowhand_motor__rh_lfproximal_visual">
      <origin rpy="0  0  0" xyz="0  0  0"/>
      <geometry>
        <mesh filename="package://shadow_hand_test/urdf/sr_hand/meshes/F3_2.dae" scale="0.001 0.001 0.001"/>
      </geometry>
    </visual>
  </link>
  <link name="shadowhand_motor__rh_lfmiddle">
    <inertial>
      <mass value="0.017"/>
      <origin rpy="0  0  0" xyz="0      0      0.0125"/>
      <inertia ixx="2.6e-06" ixy="0" ixz="0" iyy="2.7e-06" iyz="0" izz="8.7e-07"/>
    </inertial>
    <collision name="shadowhand_motor__rh_lfmiddle_collision">
      <origin rpy="0  0  0" xyz="0      0      0.0125"/>
      <geometry>
        <cylinder length="0.025" radius="0.007"/>
      </geometry>
    </collision>
    <collision name="shadowhand_motor__rh_lfmiddle_collision_1">
      <origin rpy="0  0  0" xyz="0  0  0"/>
      <geometry>
        <sphere radius="0.007"/>
      </geometry>
    </collision>
    <collision name="shadowhand_motor__rh_lfmiddle_collision_2">
      <origin rpy="0  0  0" xyz="0     0     0.025"/>
      <geometry>
        <sphere radius="0.007"/>
      </geometry>
    </collision>
    <visual name="shadowhand_motor__rh_lfmiddle_visual">
      <origin rpy="0  0  0" xyz="0  0  0"/>
      <geometry>
        <mesh filename="package://shadow_hand_test/urdf/sr_hand/meshes/F2_2.dae" scale="0.001 0.001 0.001"/>
      </geometry>
    </visual>
  </link>
  <link name="shadowhand_motor__rh_lfdistal">
    <inertial>
      <mass value="0.013"/>
      <origin rpy="0  0  0" xyz="0       0       0.01307"/>
      <inertia ixx="1.12092e-06" ixy="0" ixz="0" iyy="1.28092e-06" iyz="0" izz="5.3e-07"/>
    </inertial>
    <collision name="shadowhand_motor__rh_lfdistal_collision">
      <origin rpy="0  0  0" xyz="0  0  0"/>
      <geometry>
        <mesh filename="package://shadow_hand_test/urdf/sr_hand/meshes/F1_2.dae" scale="0.001 0.001 0.001"/>
      </geometry>
    </collision>
    <visual name="shadowhand_motor__rh_lfdistal_visual">
      <origin rpy="0  0  0" xyz="0  0  0"/>
      <geometry>
        <mesh filename="package://shadow_hand_test/urdf/sr_hand/meshes/F1_2.dae" scale="0.001 0.001 0.001"/>
      </geometry>
    </visual>
  </link>
  <link name="shadowhand_motor__rh_mfknuckle">
    <inertial>
      <mass value="0.008"/>
      <origin rpy="0  0  0" xyz="0  0  0"/>
      <inertia ixx="2.6e-07" ixy="0" ixz="0" iyy="2.6e-07" iyz="0" izz="3.2e-07"/>
    </inertial>
    <collision name="shadowhand_motor__rh_mfknuckle_collision">
      <origin rpy="3.14159  1.57079  3.14159" xyz="0  0  0"/>
      <geometry>
        <cylinder length="0.014" radius="0.007"/>
      </geometry>
    </collision>
    <visual name="shadowhand_motor__rh_mfknuckle_visual">
      <origin rpy="0  0  0" xyz="0      0      0.0005"/>
      <geometry>
        <mesh filename="package://shadow_hand_test/urdf/sr_hand/meshes/knuckle_2.dae" scale="0.001 0.001 0.001"/>
      </geometry>
    </visual>
  </link>
  <link name="shadowhand_motor__rh_mfproximal">
    <inertial>
      <mass value="0.03"/>
      <origin rpy="0  0  0" xyz="0      0      0.0225"/>
      <inertia ixx="9.8e-06" ixy="0" ixz="0" iyy="1e-05" iyz="0" izz="1.8e-06"/>
    </inertial>
    <collision name="shadowhand_motor__rh_mfproximal_collision">
      <origin rpy="0  0  0" xyz="0     0     0.025"/>
      <geometry>
        <cylinder length="0.04" radius="0.007"/>
      </geometry>
    </collision>
    <visual name="shadowhand_motor__rh_mfproximal_visual">
      <origin rpy="0  0  0" xyz="0  0  0"/>
      <geometry>
        <mesh filename="package://shadow_hand_test/urdf/sr_hand/meshes/F3_2.dae" scale="0.001 0.001 0.001"/>
      </geometry>
    </visual>
  </link>
  <link name="shadowhand_motor__rh_mfmiddle">
    <inertial>
      <mass value="0.017"/>
      <origin rpy="0  0  0" xyz="0      0      0.0125"/>
      <inertia ixx="2.6e-06" ixy="0" ixz="0" iyy="2.7e-06" iyz="0" izz="8.7e-07"/>
    </inertial>
    <collision name="shadowhand_motor__rh_mfmiddle_collision">
      <origin rpy="0  0  0" xyz="0      0      0.0125"/>
      <geometry>
        <cylinder length="0.025" radius="0.007"/>
      </geometry>
    </collision>
    <collision name="shadowhand_motor__rh_mfmiddle_collision_1">
      <origin rpy="0  0  0" xyz="0  0  0"/>
      <geometry>
        <sphere radius="0.007"/>
      </geometry>
    </collision>
    <collision name="shadowhand_motor__rh_mfmiddle_collision_2">
      <origin rpy="0  0  0" xyz="0     0     0.025"/>
      <geometry>
        <sphere radius="0.007"/>
      </geometry>
    </collision>
    <visual name="shadowhand_motor__rh_mfmiddle_visual">
      <origin rpy="0  0  0" xyz="0  0  0"/>
      <geometry>
        <mesh filename="package://shadow_hand_test/urdf/sr_hand/meshes/F2_2.dae" scale="0.001 0.001 0.001"/>
      </geometry>
    </visual>
  </link>
  <link name="shadowhand_motor__rh_mfdistal">
    <inertial>
      <mass value="0.013"/>
      <origin rpy="0  0  0" xyz="0       0       0.01307"/>
      <inertia ixx="1.12092e-06" ixy="0" ixz="0" iyy="1.28092e-06" iyz="0" izz="5.3e-07"/>
    </inertial>
    <collision name="shadowhand_motor__rh_mfdistal_collision">
      <origin rpy="0  0  0" xyz="0  0  0"/>
      <geometry>
        <mesh filename="package://shadow_hand_test/urdf/sr_hand/meshes/F1_2.dae" scale="0.001 0.001 0.001"/>
      </geometry>
    </collision>
    <visual name="shadowhand_motor__rh_mfdistal_visual">
      <origin rpy="0  0  0" xyz="0  0  0"/>
      <geometry>
        <mesh filename="package://shadow_hand_test/urdf/sr_hand/meshes/F1_2.dae" scale="0.001 0.001 0.001"/>
      </geometry>
    </visual>
  </link>
  <link name="shadowhand_motor__rh_rfknuckle">
    <inertial>
      <mass value="0.008"/>
      <origin rpy="0  0  0" xyz="0  0  0"/>
      <inertia ixx="2.6e-07" ixy="0" ixz="0" iyy="2.6e-07" iyz="0" izz="3.2e-07"/>
    </inertial>
    <collision name="shadowhand_motor__rh_rfknuckle_collision">
      <origin rpy="3.14159  1.57079  3.14159" xyz="0  0  0"/>
      <geometry>
        <cylinder length="0.014" radius="0.007"/>
      </geometry>
    </collision>
    <visual name="shadowhand_motor__rh_rfknuckle_visual">
      <origin rpy="0  0  0" xyz="0      0      0.0005"/>
      <geometry>
        <mesh filename="package://shadow_hand_test/urdf/sr_hand/meshes/knuckle_2.dae" scale="0.001 0.001 0.001"/>
      </geometry>
    </visual>
  </link>
  <link name="shadowhand_motor__rh_rfproximal">
    <inertial>
      <mass value="0.03"/>
      <origin rpy="0  0  0" xyz="0      0      0.0225"/>
      <inertia ixx="9.8e-06" ixy="0" ixz="0" iyy="1e-05" iyz="0" izz="1.8e-06"/>
    </inertial>
    <collision name="shadowhand_motor__rh_rfproximal_collision">
      <origin rpy="0  0  0" xyz="0     0     0.025"/>
      <geometry>
        <cylinder length="0.04" radius="0.007"/>
      </geometry>
    </collision>
    <visual name="shadowhand_motor__rh_rfproximal_visual">
      <origin rpy="0  0  0" xyz="0  0  0"/>
      <geometry>
        <mesh filename="package://shadow_hand_test/urdf/sr_hand/meshes/F3_2.dae" scale="0.001 0.001 0.001"/>
      </geometry>
    </visual>
  </link>
  <link name="shadowhand_motor__rh_rfmiddle">
    <inertial>
      <mass value="0.017"/>
      <origin rpy="0  0  0" xyz="0      0      0.0125"/>
      <inertia ixx="2.6e-06" ixy="0" ixz="0" iyy="2.7e-06" iyz="0" izz="8.7e-07"/>
    </inertial>
    <collision name="shadowhand_motor__rh_rfmiddle_collision">
      <origin rpy="0  0  0" xyz="0      0      0.0125"/>
      <geometry>
        <cylinder length="0.025" radius="0.007"/>
      </geometry>
    </collision>
    <collision name="shadowhand_motor__rh_rfmiddle_collision_1">
      <origin rpy="0  0  0" xyz="0  0  0"/>
      <geometry>
        <sphere radius="0.007"/>
      </geometry>
    </collision>
    <collision name="shadowhand_motor__rh_rfmiddle_collision_2">
      <origin rpy="0  0  0" xyz="0     0     0.025"/>
      <geometry>
        <sphere radius="0.007"/>
      </geometry>
    </collision>
    <visual name="shadowhand_motor__rh_rfmiddle_visual">
      <origin rpy="0  0  0" xyz="0  0  0"/>
      <geometry>
        <mesh filename="package://shadow_hand_test/urdf/sr_hand/meshes/F2_2.dae" scale="0.001 0.001 0.001"/>
      </geometry>
    </visual>
  </link>
  <link name="shadowhand_motor__rh_rfdistal">
    <inertial>
      <mass value="0.013"/>
      <origin rpy="0  0  0" xyz="0       0       0.01307"/>
      <inertia ixx="1.12092e-06" ixy="0" ixz="0" iyy="1.28092e-06" iyz="0" izz="5.3e-07"/>
    </inertial>
    <collision name="shadowhand_motor__rh_rfdistal_collision">
      <origin rpy="0  0  0" xyz="0  0  0"/>
      <geometry>
        <mesh filename="package://shadow_hand_test/urdf/sr_hand/meshes/F1_2.dae" scale="0.001 0.001 0.001"/>
      </geometry>
    </collision>
    <visual name="shadowhand_motor__rh_rfdistal_visual">
      <origin rpy="0  0  0" xyz="0  0  0"/>
      <geometry>
        <mesh filename="package://shadow_hand_test/urdf/sr_hand/meshes/F1_2.dae" scale="0.001 0.001 0.001"/>
      </geometry>
    </visual>
  </link>
  <link name="shadowhand_motor__rh_thbase">
    <inertial>
      <mass value="0.01"/>
      <origin rpy="0  0  0" xyz="0  0  0"/>
      <inertia ixx="1.6e-07" ixy="0" ixz="0" iyy="1.6e-07" iyz="0" izz="1.6e-07"/>
    </inertial>
    <collision name="shadowhand_motor__rh_thbase_collision">
      <origin rpy="0  0  0" xyz="0  0  0"/>
      <geometry>
        <sphere radius="0.011"/>
      </geometry>
    </collision>
    <visual name="shadowhand_motor__rh_thbase_visual">
      <origin rpy="0  0  0" xyz="0  0  0"/>
      <geometry>
        <box size="0.001 0.001 0.001"/>
      </geometry>
    </visual>
  </link>
  <link name="shadowhand_motor__rh_thproximal">
    <inertial>
      <mass value="0.04"/>
      <origin rpy="0  0  0" xyz="0     0     0.019"/>
      <inertia ixx="1.36e-05" ixy="0" ixz="0" iyy="1.36e-05" iyz="0" izz="3.13e-06"/>
    </inertial>
    <collision name="shadowhand_motor__rh_thproximal_collision">
      <origin rpy="0  0  0" xyz="0    0    0.02"/>
      <geometry>
        <cylinder length="0.018" radius="0.012"/>
      </geometry>
    </collision>
    <visual name="shadowhand_motor__rh_thproximal_visual">
      <origin rpy="0  0  0" xyz="0  0  0"/>
      <geometry>
        <mesh filename="package://shadow_hand_test/urdf/sr_hand/meshes/TH3_z_2.dae" scale="0.001 0.001 0.001"/>
      </geometry>
    </visual>
  </link>
  <link name="shadowhand_motor__rh_thhub">
    <inertial>
      <mass value="0.005"/>
      <origin rpy="0  0  0" xyz="0  0  0"/>
      <inertia ixx="1e-06" ixy="0" ixz="0" iyy="1e-06" iyz="0" izz="3e-07"/>
    </inertial>
    <collision name="shadowhand_motor__rh_thhub_collision">
      <origin rpy="0  0  0" xyz="0  0  0"/>
      <geometry>
        <sphere radius="0.01"/>
      </geometry>
    </collision>
    <visual name="shadowhand_motor__rh_thhub_visual">
      <origin rpy="0  0  0" xyz="0  0  0"/>
      <geometry>
        <box size="0.001 0.001 0.001"/>
      </geometry>
    </visual>
  </link>
  <link name="shadowhand_motor__rh_thmiddle">
    <inertial>
      <mass value="0.02"/>
      <origin rpy="0  0  0" xyz="0     0     0.016"/>
      <inertia ixx="5.1e-06" ixy="0" ixz="0" iyy="5.1e-06" iyz="0" izz="1.21e-06"/>
    </inertial>
    <collision name="shadowhand_motor__rh_thmiddle_collision">
      <origin rpy="0  0  0" xyz="0     0     0.012"/>
      <geometry>
        <cylinder length="0.018" radius="0.011"/>
      </geometry>
    </collision>
    <collision name="shadowhand_motor__rh_thmiddle_collision_1">
      <origin rpy="0  0  0" xyz="0     0     0.019"/>
      <geometry>
        <sphere radius="0.011"/>
      </geometry>
    </collision>
    <visual name="shadowhand_motor__rh_thmiddle_visual">
      <origin rpy="0  0  0" xyz="0  0  0"/>
      <geometry>
        <mesh filename="package://shadow_hand_test/urdf/sr_hand/meshes/TH2_z_2.dae" scale="0.001 0.001 0.001"/>
      </geometry>
    </visual>
  </link>
  <link name="shadowhand_motor__rh_thdistal">
    <inertial>
      <mass value="0.017"/>
      <origin rpy="0  0  0" xyz="0       0       0.01455"/>
      <inertia ixx="2.27794e-06" ixy="0" ixz="0" iyy="2.37794e-06" iyz="0" izz="1e-06"/>
    </inertial>
    <collision name="shadowhand_motor__rh_thdistal_collision">
      <origin rpy="0  0  0" xyz="0  0  0"/>
      <geometry>
        <mesh filename="package://shadow_hand_test/urdf/sr_hand/meshes/TH1_z_2.dae" scale="0.001 0.001 0.001"/>
      </geometry>
    </collision>
    <visual name="shadowhand_motor__rh_thdistal_visual">
      <origin rpy="0  0  0" xyz="0  0  0"/>
      <geometry>
        <mesh filename="package://shadow_hand_test/urdf/sr_hand/meshes/TH1_z_2.dae" scale="0.001 0.001 0.001"/>
      </geometry>
    </visual>
  </link>

  <!-- <gazebo>
    <static>true</static>
</gazebo> -->


</robot>

